{
  "kind": "collectionType",
  "collectionName": "datos",
  "info": {
    "name": "Datos"
  },
  "options": {
    "increments": true,
    "timestamps": true
  },
  "attributes": {
    "estacione": {
      "model": "estaciones"
    },
    "Fecha": {
      "type": "datetime"
    },
    "YJday": {
      "type": "string"
    },
    "Hora": {
      "type": "time"
    },
    "batVolts": {
      "type": "float"
    },
    "Temp_Aire": {
      "type": "float"
    },
    "H_relativa": {
      "type": "float"
    },
    "P_atm": {
      "type": "float"
    },
    "Precip_Total": {
      "type": "float"
    },
    "Vel_Viento": {
      "type": "float"
    },
    "Dir_Viento": {
      "type": "float"
    },
    "Irradiancia": {
      "type": "float"
    },
    "Alt_Nieve": {
      "type": "float"
    },
    "T_Suelo": {
      "type": "float"
    },
    "Alt_NieveD": {
      "type": "float"
    }
  }
}
